2019_DD_LAB10/example/lab10.vcd
$date
	Mon May 20 20:01:17 2019
$end
$version
	Icarus Verilog
$end
$timescale
	1ps
$end
$scope module tb_lab $end
$var wire 1 ! out_valid $end
$var wire 64 " out [63:0] $end
$var reg 1 # CLK $end
$var reg 65 $ correct_ans [64:0] $end
$var reg 6 % count [5:0] $end
$var reg 1 & error $end
$var reg 32 ' in_a [31:0] $end
$var reg 32 ( in_b [31:0] $end
$var reg 1 ) reset $end
$var reg 64 * temp_a [63:0] $end
$var reg 64 + temp_b [63:0] $end
$scope module m1 $end
$var wire 1 # CLK $end
$var wire 1 ) RST $end
$var wire 32 , in_a [31:0] $end
$var wire 32 - in_b [31:0] $end
$var reg 7 . Counter [6:0] $end
$var reg 32 / Mplicand [31:0] $end
$var reg 1 0 Mythicalbit $end
$var reg 64 1 Product [63:0] $end
$var reg 1 ! Product_Valid $end
$upscope $end
$upscope $end
$enddefinitions $end
#0
$dumpvars
bx 1
x0
bx /
bx .
bx -
bx ,
bx +
bx *
x)
bx (
bx '
x&
bx %
bx $
0#
bx "
x!
$end
#10000
b0 .
00
b0 /
b0 "
b0 1
0!
0&
b0 $
b1011010 (
b1011010 -
b11110 '
b11110 ,
b0 %
1#
b1011010 +
b11110 *
1)
#20000
0#
#30000
b1 %
b101010001100 $
b1011010 "
b1011010 1
b11110 /
b1 .
1#
0)
#40000
0#
#50000
b10 .
b10 %
b101101 "
b101101 1
1#
#60000
0#
#70000
b11 %
b11 .
10
b1111111111111111111111111111000100000000000000000000000000010110 "
b1111111111111111111111111111000100000000000000000000000000010110 1
1#
#80000
0#
#90000
b100 .
b100 %
00
b11110000000000000000000000000001011 "
b11110000000000000000000000000001011 1
1#
#100000
0#
#110000
b101 %
b101 .
10
b1111111111111111111111111111010011000000000000000000000000000101 "
b1111111111111111111111111111010011000000000000000000000000000101 1
1#
#120000
0#
#130000
b110 .
b110 %
b1111111111111111111111111111101001100000000000000000000000000010 "
b1111111111111111111111111111101001100000000000000000000000000010 1
1#
#140000
0#
#150000
b111 %
b111 .
00
b110000110000000000000000000000000001 "
b110000110000000000000000000000000001 1
1#
#160000
0#
#170000
b1000 .
b1000 %
10
b1111111111111111111111111111011100011000000000000000000000000000 "
b1111111111111111111111111111011100011000000000000000000000000000 1
1#
#180000
0#
#190000
b1001 %
b1001 .
00
b101010001100000000000000000000000000 "
b101010001100000000000000000000000000 1
1#
#200000
0#
#210000
b1010 .
b1010 %
b10101000110000000000000000000000000 "
b10101000110000000000000000000000000 1
1#
#220000
0#
#230000
b1011 %
b1011 .
b1010100011000000000000000000000000 "
b1010100011000000000000000000000000 1
1#
#240000
0#
#250000
b1100 .
b1100 %
b101010001100000000000000000000000 "
b101010001100000000000000000000000 1
1#
#260000
0#
#270000
b1101 %
b1101 .
b10101000110000000000000000000000 "
b10101000110000000000000000000000 1
1#
#280000
0#
#290000
b1110 .
b1110 %
b1010100011000000000000000000000 "
b1010100011000000000000000000000 1
1#
#300000
0#
#310000
b1111 %
b1111 .
b101010001100000000000000000000 "
b101010001100000000000000000000 1
1#
#320000
0#
#330000
b10000 .
b10000 %
b10101000110000000000000000000 "
b10101000110000000000000000000 1
1#
#340000
0#
#350000
b10001 %
b10001 .
b1010100011000000000000000000 "
b1010100011000000000000000000 1
1#
#360000
0#
#370000
b10010 .
b10010 %
b101010001100000000000000000 "
b101010001100000000000000000 1
1#
#380000
0#
#390000
b10011 %
b10011 .
b10101000110000000000000000 "
b10101000110000000000000000 1
1#
#400000
0#
#410000
b10100 .
b10100 %
b1010100011000000000000000 "
b1010100011000000000000000 1
1#
#420000
0#
#430000
b10101 %
b10101 .
b101010001100000000000000 "
b101010001100000000000000 1
1#
#440000
0#
#450000
b10110 .
b10110 %
b10101000110000000000000 "
b10101000110000000000000 1
1#
#460000
0#
#470000
b10111 %
b10111 .
b1010100011000000000000 "
b1010100011000000000000 1
1#
#480000
0#
#490000
b11000 .
b11000 %
b101010001100000000000 "
b101010001100000000000 1
1#
#500000
0#
#510000
b11001 %
b11001 .
b10101000110000000000 "
b10101000110000000000 1
1#
#520000
0#
#530000
b11010 .
b11010 %
b1010100011000000000 "
b1010100011000000000 1
1#
#540000
0#
#550000
b11011 %
b11011 .
b101010001100000000 "
b101010001100000000 1
1#
#560000
0#
#570000
b11100 .
b11100 %
b10101000110000000 "
b10101000110000000 1
1#
#580000
0#
#590000
b11101 %
b11101 .
b1010100011000000 "
b1010100011000000 1
1#
#600000
0#
#610000
b11110 .
b11110 %
b101010001100000 "
b101010001100000 1
1#
#620000
0#
#630000
b11111 %
b11111 .
b10101000110000 "
b10101000110000 1
1#
#640000
0#
#650000
b100000 .
b100000 %
b1010100011000 "
b1010100011000 1
1#
#660000
0#
#670000
b100001 %
1!
b100001 .
b101010001100 "
b101010001100 1
1#
#680000
0#
#690000
b100010 .
0!
b100010 %
1#
#700000
0#
#710000
b0 $
b11111111111111111111111110100110 (
b11111111111111111111111110100110 -
b0 %
b0 /
b0 "
b0 1
b0 .
1#
b1111111111111111111111111111111111111111111111111111111110100110 +
1)
#720000
0#
#730000
b1 .
b11111111111111111111111110100110 "
b11111111111111111111111110100110 1
b11110 /
b1 %
b11111111111111111111111111111111111111111111111111111010101110100 $
1#
0)
#740000
0#
#750000
b10 %
b10 .
b1111111111111111111111111010011 "
b1111111111111111111111111010011 1
1#
#760000
0#
#770000
b11 .
b11 %
10
b1111111111111111111111111111000100111111111111111111111111101001 "
b1111111111111111111111111111000100111111111111111111111111101001 1
1#
#780000
0#
#790000
b100 %
b100 .
b1111111111111111111111111111100010011111111111111111111111110100 "
b1111111111111111111111111111100010011111111111111111111111110100 1
1#
#800000
0#
#810000
b101 .
b101 %
00
b101101001111111111111111111111111010 "
b101101001111111111111111111111111010 1
1#
#820000
0#
#830000
b110 %
b110 .
b10110100111111111111111111111111101 "
b10110100111111111111111111111111101 1
1#
#840000
0#
#850000
b111 .
b111 %
10
b1111111111111111111111111111001111010011111111111111111111111110 "
b1111111111111111111111111111001111010011111111111111111111111110 1
1#
#860000
0#
#870000
b1000 %
b1000 .
00
b100011101001111111111111111111111111 "
b100011101001111111111111111111111111 1
1#
#880000
0#
#890000
b1001 .
b1001 %
10
b1111111111111111111111111111010101110100111111111111111111111111 "
b1111111111111111111111111111010101110100111111111111111111111111 1
1#
#900000
0#
#910000
b1010 %
b1010 .
b1111111111111111111111111111101010111010011111111111111111111111 "
b1111111111111111111111111111101010111010011111111111111111111111 1
1#
#920000
0#
#930000
b1011 .
b1011 %
b1111111111111111111111111111110101011101001111111111111111111111 "
b1111111111111111111111111111110101011101001111111111111111111111 1
1#
#940000
0#
#950000
b1100 %
b1100 .
b1111111111111111111111111111111010101110100111111111111111111111 "
b1111111111111111111111111111111010101110100111111111111111111111 1
1#
#960000
0#
#970000
b1101 .
b1101 %
b1111111111111111111111111111111101010111010011111111111111111111 "
b1111111111111111111111111111111101010111010011111111111111111111 1
1#
#980000
0#
#990000
b1110 %
b1110 .
b1111111111111111111111111111111110101011101001111111111111111111 "
b1111111111111111111111111111111110101011101001111111111111111111 1
1#
#1000000
0#
#1010000
b1111 .
b1111 %
b1111111111111111111111111111111111010101110100111111111111111111 "
b1111111111111111111111111111111111010101110100111111111111111111 1
1#
#1020000
0#
#1030000
b10000 %
b10000 .
b1111111111111111111111111111111111101010111010011111111111111111 "
b1111111111111111111111111111111111101010111010011111111111111111 1
1#
#1040000
0#
#1050000
b10001 .
b10001 %
b1111111111111111111111111111111111110101011101001111111111111111 "
b1111111111111111111111111111111111110101011101001111111111111111 1
1#
#1060000
0#
#1070000
b10010 %
b10010 .
b1111111111111111111111111111111111111010101110100111111111111111 "
b1111111111111111111111111111111111111010101110100111111111111111 1
1#
#1080000
0#
#1090000
b10011 .
b10011 %
b1111111111111111111111111111111111111101010111010011111111111111 "
b1111111111111111111111111111111111111101010111010011111111111111 1
1#
#1100000
0#
#1110000
b10100 %
b10100 .
b1111111111111111111111111111111111111110101011101001111111111111 "
b1111111111111111111111111111111111111110101011101001111111111111 1
1#
#1120000
0#
#1130000
b10101 .
b10101 %
b1111111111111111111111111111111111111111010101110100111111111111 "
b1111111111111111111111111111111111111111010101110100111111111111 1
1#
#1140000
0#
#1150000
b10110 %
b10110 .
b1111111111111111111111111111111111111111101010111010011111111111 "
b1111111111111111111111111111111111111111101010111010011111111111 1
1#
#1160000
0#
#1170000
b10111 .
b10111 %
b1111111111111111111111111111111111111111110101011101001111111111 "
b1111111111111111111111111111111111111111110101011101001111111111 1
1#
#1180000
0#
#1190000
b11000 %
b11000 .
b1111111111111111111111111111111111111111111010101110100111111111 "
b1111111111111111111111111111111111111111111010101110100111111111 1
1#
#1200000
0#
#1210000
b11001 .
b11001 %
b1111111111111111111111111111111111111111111101010111010011111111 "
b1111111111111111111111111111111111111111111101010111010011111111 1
1#
#1220000
0#
#1230000
b11010 %
b11010 .
b1111111111111111111111111111111111111111111110101011101001111111 "
b1111111111111111111111111111111111111111111110101011101001111111 1
1#
#1240000
0#
#1250000
b11011 .
b11011 %
b1111111111111111111111111111111111111111111111010101110100111111 "
b1111111111111111111111111111111111111111111111010101110100111111 1
1#
#1260000
0#
#1270000
b11100 %
b11100 .
b1111111111111111111111111111111111111111111111101010111010011111 "
b1111111111111111111111111111111111111111111111101010111010011111 1
1#
#1280000
0#
#1290000
b11101 .
b11101 %
b1111111111111111111111111111111111111111111111110101011101001111 "
b1111111111111111111111111111111111111111111111110101011101001111 1
1#
#1300000
0#
#1310000
b11110 %
b11110 .
b1111111111111111111111111111111111111111111111111010101110100111 "
b1111111111111111111111111111111111111111111111111010101110100111 1
1#
#1320000
0#
#1330000
b11111 .
b11111 %
b1111111111111111111111111111111111111111111111111101010111010011 "
b1111111111111111111111111111111111111111111111111101010111010011 1
1#
#1340000
0#
#1350000
b100000 %
b100000 .
b1111111111111111111111111111111111111111111111111110101011101001 "
b1111111111111111111111111111111111111111111111111110101011101001 1
1#
#1360000
0#
#1370000
b100001 .
1!
b100001 %
b1111111111111111111111111111111111111111111111111111010101110100 "
b1111111111111111111111111111111111111111111111111111010101110100 1
1#
#1380000
0#
#1390000
b100010 %
0!
b100010 .
1#
#1400000
0#
#1410000
b0 .
00
b0 /
b0 "
b0 1
b0 $
b1011010 (
b1011010 -
b11111111111111111111111111100010 '
b11111111111111111111111111100010 ,
b0 %
1#
b1011010 +
b1111111111111111111111111111111111111111111111111111111111100010 *
1)
#1420000
0#
#1430000
b1 %
b11111111111111111111111111111111111111111111111111111010101110100 $
b1011010 "
b1011010 1
b11111111111111111111111111100010 /
b1 .
1#
0)
#1440000
0#
#1450000
b10 .
b10 %
b101101 "
b101101 1
1#
#1460000
0#
#1470000
b11 %
b11 .
10
b111100000000000000000000000000010110 "
b111100000000000000000000000000010110 1
1#
#1480000
0#
#1490000
b100 .
b100 %
00
b1111111111111111111111111111100010000000000000000000000000001011 "
b1111111111111111111111111111100010000000000000000000000000001011 1
1#
#1500000
0#
#1510000
b101 %
b101 .
10
b101101000000000000000000000000000101 "
b101101000000000000000000000000000101 1
1#
#1520000
0#
#1530000
b110 .
b110 %
b10110100000000000000000000000000010 "
b10110100000000000000000000000000010 1
1#
#1540000
0#
#1550000
b111 %
b111 .
00
b1111111111111111111111111111001111010000000000000000000000000001 "
b1111111111111111111111111111001111010000000000000000000000000001 1
1#
#1560000
0#
#1570000
b1000 .
b1000 %
10
b100011101000000000000000000000000000 "
b100011101000000000000000000000000000 1
1#
#1580000
0#
#1590000
b1001 %
b1001 .
00
b1111111111111111111111111111010101110100000000000000000000000000 "
b1111111111111111111111111111010101110100000000000000000000000000 1
1#
#1600000
0#
#1610000
b1010 .
b1010 %
b1111111111111111111111111111101010111010000000000000000000000000 "
b1111111111111111111111111111101010111010000000000000000000000000 1
1#
#1620000
0#
#1630000
b1011 %
b1011 .
b1111111111111111111111111111110101011101000000000000000000000000 "
b1111111111111111111111111111110101011101000000000000000000000000 1
1#
#1640000
0#
#1650000
b1100 .
b1100 %
b1111111111111111111111111111111010101110100000000000000000000000 "
b1111111111111111111111111111111010101110100000000000000000000000 1
1#
#1660000
0#
#1670000
b1101 %
b1101 .
b1111111111111111111111111111111101010111010000000000000000000000 "
b1111111111111111111111111111111101010111010000000000000000000000 1
1#
#1680000
0#
#1690000
b1110 .
b1110 %
b1111111111111111111111111111111110101011101000000000000000000000 "
b1111111111111111111111111111111110101011101000000000000000000000 1
1#
#1700000
0#
#1710000
b1111 %
b1111 .
b1111111111111111111111111111111111010101110100000000000000000000 "
b1111111111111111111111111111111111010101110100000000000000000000 1
1#
#1720000
0#
#1730000
b10000 .
b10000 %
b1111111111111111111111111111111111101010111010000000000000000000 "
b1111111111111111111111111111111111101010111010000000000000000000 1
1#
#1740000
0#
#1750000
b10001 %
b10001 .
b1111111111111111111111111111111111110101011101000000000000000000 "
b1111111111111111111111111111111111110101011101000000000000000000 1
1#
#1760000
0#
#1770000
b10010 .
b10010 %
b1111111111111111111111111111111111111010101110100000000000000000 "
b1111111111111111111111111111111111111010101110100000000000000000 1
1#
#1780000
0#
#1790000
b10011 %
b10011 .
b1111111111111111111111111111111111111101010111010000000000000000 "
b1111111111111111111111111111111111111101010111010000000000000000 1
1#
#1800000
0#
#1810000
b10100 .
b10100 %
b1111111111111111111111111111111111111110101011101000000000000000 "
b1111111111111111111111111111111111111110101011101000000000000000 1
1#
#1820000
0#
#1830000
b10101 %
b10101 .
b1111111111111111111111111111111111111111010101110100000000000000 "
b1111111111111111111111111111111111111111010101110100000000000000 1
1#
#1840000
0#
#1850000
b10110 .
b10110 %
b1111111111111111111111111111111111111111101010111010000000000000 "
b1111111111111111111111111111111111111111101010111010000000000000 1
1#
#1860000
0#
#1870000
b10111 %
b10111 .
b1111111111111111111111111111111111111111110101011101000000000000 "
b1111111111111111111111111111111111111111110101011101000000000000 1
1#
#1880000
0#
#1890000
b11000 .
b11000 %
b1111111111111111111111111111111111111111111010101110100000000000 "
b1111111111111111111111111111111111111111111010101110100000000000 1
1#
#1900000
0#
#1910000
b11001 %
b11001 .
b1111111111111111111111111111111111111111111101010111010000000000 "
b1111111111111111111111111111111111111111111101010111010000000000 1
1#
#1920000
0#
#1930000
b11010 .
b11010 %
b1111111111111111111111111111111111111111111110101011101000000000 "
b1111111111111111111111111111111111111111111110101011101000000000 1
1#
#1940000
0#
#1950000
b11011 %
b11011 .
b1111111111111111111111111111111111111111111111010101110100000000 "
b1111111111111111111111111111111111111111111111010101110100000000 1
1#
#1960000
0#
#1970000
b11100 .
b11100 %
b1111111111111111111111111111111111111111111111101010111010000000 "
b1111111111111111111111111111111111111111111111101010111010000000 1
1#
#1980000
0#
#1990000
b11101 %
b11101 .
b1111111111111111111111111111111111111111111111110101011101000000 "
b1111111111111111111111111111111111111111111111110101011101000000 1
1#
#2000000
0#
#2010000
b11110 .
b11110 %
b1111111111111111111111111111111111111111111111111010101110100000 "
b1111111111111111111111111111111111111111111111111010101110100000 1
1#
#2020000
0#
#2030000
b11111 %
b11111 .
b1111111111111111111111111111111111111111111111111101010111010000 "
b1111111111111111111111111111111111111111111111111101010111010000 1
1#
#2040000
0#
#2050000
b100000 .
b100000 %
b1111111111111111111111111111111111111111111111111110101011101000 "
b1111111111111111111111111111111111111111111111111110101011101000 1
1#
#2060000
0#
#2070000
b100001 %
1!
b100001 .
b1111111111111111111111111111111111111111111111111111010101110100 "
b1111111111111111111111111111111111111111111111111111010101110100 1
1#
#2080000
0#
#2090000
b100010 .
0!
b100010 %
1#
#2100000
0#
#2110000
b0 $
b11111111111111111111111110100110 (
b11111111111111111111111110100110 -
b0 %
b0 /
b0 "
b0 1
b0 .
1#
b1111111111111111111111111111111111111111111111111111111110100110 +
1)
#2120000
0#
#2130000
b1 .
b11111111111111111111111110100110 "
b11111111111111111111111110100110 1
b11111111111111111111111111100010 /
b1 %
b101010001100 $
1#
0)
#2140000
0#
#2150000
b10 %
b10 .
b1111111111111111111111111010011 "
b1111111111111111111111111010011 1
1#
#2160000
0#
#2170000
b11 .
b11 %
10
b111100111111111111111111111111101001 "
b111100111111111111111111111111101001 1
1#
#2180000
0#
#2190000
b100 %
b100 .
b11110011111111111111111111111110100 "
b11110011111111111111111111111110100 1
1#
#2200000
0#
#2210000
b101 .
b101 %
00
b1111111111111111111111111111010011001111111111111111111111111010 "
b1111111111111111111111111111010011001111111111111111111111111010 1
1#
#2220000
0#
#2230000
b110 %
b110 .
b1111111111111111111111111111101001100111111111111111111111111101 "
b1111111111111111111111111111101001100111111111111111111111111101 1
1#
#2240000
0#
#2250000
b111 .
b111 %
10
b110000110011111111111111111111111110 "
b110000110011111111111111111111111110 1
1#
#2260000
0#
#2270000
b1000 %
b1000 .
00
b1111111111111111111111111111011100011001111111111111111111111111 "
b1111111111111111111111111111011100011001111111111111111111111111 1
1#
#2280000
0#
#2290000
b1001 .
b1001 %
10
b101010001100111111111111111111111111 "
b101010001100111111111111111111111111 1
1#
#2300000
0#
#2310000
b1010 %
b1010 .
b10101000110011111111111111111111111 "
b10101000110011111111111111111111111 1
1#
#2320000
0#
#2330000
b1011 .
b1011 %
b1010100011001111111111111111111111 "
b1010100011001111111111111111111111 1
1#
#2340000
0#
#2350000
b1100 %
b1100 .
b101010001100111111111111111111111 "
b101010001100111111111111111111111 1
1#
#2360000
0#
#2370000
b1101 .
b1101 %
b10101000110011111111111111111111 "
b10101000110011111111111111111111 1
1#
#2380000
0#
#2390000
b1110 %
b1110 .
b1010100011001111111111111111111 "
b1010100011001111111111111111111 1
1#
#2400000
0#
#2410000
b1111 .
b1111 %
b101010001100111111111111111111 "
b101010001100111111111111111111 1
1#
#2420000
0#
#2430000
b10000 %
b10000 .
b10101000110011111111111111111 "
b10101000110011111111111111111 1
1#
#2440000
0#
#2450000
b10001 .
b10001 %
b1010100011001111111111111111 "
b1010100011001111111111111111 1
1#
#2460000
0#
#2470000
b10010 %
b10010 .
b101010001100111111111111111 "
b101010001100111111111111111 1
1#
#2480000
0#
#2490000
b10011 .
b10011 %
b10101000110011111111111111 "
b10101000110011111111111111 1
1#
#2500000
0#
#2510000
b10100 %
b10100 .
b1010100011001111111111111 "
b1010100011001111111111111 1
1#
#2520000
0#
#2530000
b10101 .
b10101 %
b101010001100111111111111 "
b101010001100111111111111 1
1#
#2540000
0#
#2550000
b10110 %
b10110 .
b10101000110011111111111 "
b10101000110011111111111 1
1#
#2560000
0#
#2570000
b10111 .
b10111 %
b1010100011001111111111 "
b1010100011001111111111 1
1#
#2580000
0#
#2590000
b11000 %
b11000 .
b101010001100111111111 "
b101010001100111111111 1
1#
#2600000
0#
#2610000
b11001 .
b11001 %
b10101000110011111111 "
b10101000110011111111 1
1#
#2620000
0#
#2630000
b11010 %
b11010 .
b1010100011001111111 "
b1010100011001111111 1
1#
#2640000
0#
#2650000
b11011 .
b11011 %
b101010001100111111 "
b101010001100111111 1
1#
#2660000
0#
#2670000
b11100 %
b11100 .
b10101000110011111 "
b10101000110011111 1
1#
#2680000
0#
#2690000
b11101 .
b11101 %
b1010100011001111 "
b1010100011001111 1
1#
#2700000
0#
#2710000
b11110 %
b11110 .
b101010001100111 "
b101010001100111 1
1#
#2720000
0#
#2730000
b11111 .
b11111 %
b10101000110011 "
b10101000110011 1
1#
#2740000
0#
#2750000
b100000 %
b100000 .
b1010100011001 "
b1010100011001 1
1#
#2760000
0#
#2770000
b100001 .
1!
b100001 %
b101010001100 "
b101010001100 1
1#
#2780000
0#
#2790000
b100010 %
0!
b100010 .
1#
#2800000
0#
#2810000
b100011 .
b100011 %
1#
